<svg id="sun" xmlns="http://www.w3.org/2000/svg" width="26" height="25" viewBox="0 0 26 25">
  <path id="Path" d="M6.76,0A6.641,6.641,0,0,0,0,6.5,6.641,6.641,0,0,0,6.76,13a6.641,6.641,0,0,0,6.76-6.5A6.641,6.641,0,0,0,6.76,0Z" transform="translate(6.24 6)" fill="#c3c3c3"/>
  <g id="Group">
    <path id="Path-2" data-name="Path" d="M1.271,4.4A1.247,1.247,0,0,1,0,3.176V1.222A1.247,1.247,0,0,1,1.271,0,1.247,1.247,0,0,1,2.541,1.222V3.176A1.247,1.247,0,0,1,1.271,4.4Z" transform="translate(11.729)" fill="#c3c3c3"/>
    <path id="Path-3" data-name="Path" d="M1.271,0A1.247,1.247,0,0,0,0,1.222V3.176A1.247,1.247,0,0,0,1.271,4.4,1.247,1.247,0,0,0,2.541,3.176V1.222A1.247,1.247,0,0,0,1.271,0Z" transform="translate(11.729 20.602)" fill="#c3c3c3"/>
    <path id="Path-4" data-name="Path" d="M.372,3.468a1.19,1.19,0,0,1,0-1.728L1.809.357a1.308,1.308,0,0,1,1.8,0,1.189,1.189,0,0,1,0,1.728L2.169,3.468A1.307,1.307,0,0,1,.372,3.468Z" transform="translate(18.586 3.303)" fill="#c3c3c3"/>
    <path id="Path-5" data-name="Path" d="M3.606.358a1.306,1.306,0,0,0-1.8,0L.372,1.74a1.189,1.189,0,0,0,0,1.728,1.308,1.308,0,0,0,1.8,0L3.606,2.085A1.187,1.187,0,0,0,3.606.358Z" transform="translate(3.435 17.871)" fill="#c3c3c3"/>
    <path id="Path-6" data-name="Path" d="M0,1.222A1.247,1.247,0,0,1,1.271,0H3.3A1.247,1.247,0,0,1,4.574,1.222,1.246,1.246,0,0,1,3.3,2.443H1.271A1.246,1.246,0,0,1,0,1.222Z" transform="translate(21.426 11.278)" fill="#c3c3c3"/>
    <path id="Path-7" data-name="Path" d="M4.574,1.222A1.247,1.247,0,0,0,3.3,0H1.271A1.247,1.247,0,0,0,0,1.222,1.246,1.246,0,0,0,1.271,2.443H3.3A1.246,1.246,0,0,0,4.574,1.222Z" transform="translate(0 11.278)" fill="#c3c3c3"/>
    <path id="Path-8" data-name="Path" d="M.372.357a1.308,1.308,0,0,1,1.8,0L3.607,1.74a1.188,1.188,0,0,1,0,1.727,1.308,1.308,0,0,1-1.8,0L.372,2.085A1.188,1.188,0,0,1,.372.357Z" transform="translate(18.585 17.872)" fill="#c3c3c3"/>
    <path id="Path-9" data-name="Path" d="M3.607,3.467a1.189,1.189,0,0,0,0-1.728L2.169.358a1.307,1.307,0,0,0-1.8,0,1.188,1.188,0,0,0,0,1.727L1.81,3.467A1.306,1.306,0,0,0,3.607,3.467Z" transform="translate(3.435 3.304)" fill="#c3c3c3"/>
  </g>
</svg>
